{
	"info": {
		"_postman_id": "147d5bd1-a1f9-42ca-902f-82547aba4519",
		"name": "Todo App",
		"schema": "https://schema.getpostman.com/json/collection/v2.1.0/collection.json"
	},
	"item": [
		{
			"name": "1. POST /users",
			"event": [
				{
					"listen": "test",
					"script": {
						"type": "text/javascript",
						"exec": [
							"var token = postman.getResponseHeader('x-auth');",
							"pm.environment.set('x-auth', token);",
							""
						]
					}
				}
			],
			"request": {
				"method": "POST",
				"header": [
					{
						"key": "Content-Type",
						"value": "application/json"
					},
					{
						"key": "x-auth",
						"value": "{{x-auth}}"
					}
				],
				"body": {
					"mode": "raw",
					"raw": "{ \n\t\"email\": \"brian@doe.com\",\n\t\"password\": \"secret123!\"\n}"
				},
				"url": {
					"raw": "{{url}}/users",
					"host": [
						"{{url}}"
					],
					"path": [
						"users"
					]
				}
			},
			"response": []
		},
		{
			"name": "2. POST /users/login",
			"event": [
				{
					"listen": "test",
					"script": {
						"type": "text/javascript",
						"exec": [
							"var token = postman.getResponseHeader('x-auth');",
							"pm.environment.set('x-auth', token);"
						]
					}
				}
			],
			"request": {
				"method": "POST",
				"header": [
					{
						"key": "Content-Type",
						"value": "application/json"
					}
				],
				"body": {
					"mode": "raw",
					"raw": "{\n   \"email\": \"brian@doe.com\",\n\t\"password\": \"secret123!\"\n\n}"
				},
				"url": {
					"raw": "{{url}}/users/login",
					"host": [
						"{{url}}"
					],
					"path": [
						"users",
						"login"
					]
				}
			},
			"response": []
		},
		{
			"name": "3. GET /users/me",
			"request": {
				"method": "GET",
				"header": [
					{
						"key": "x-auth",
						"value": "{{x-auth}}"
					}
				],
				"url": {
					"raw": "{{url}}/users/me",
					"host": [
						"{{url}}"
					],
					"path": [
						"users",
						"me"
					]
				}
			},
			"response": []
		},
		{
			"name": "4. GET /todos",
			"request": {
				"method": "GET",
				"header": [
					{
						"key": "Content-Type",
						"value": "application/json"
					},
					{
						"key": "x-auth",
						"value": "{{x-auth}}"
					}
				],
				"url": {
					"raw": "{{url}}/todos",
					"host": [
						"{{url}}"
					],
					"path": [
						"todos"
					]
				}
			},
			"response": []
		},
		{
			"name": "5. POST /todos",
			"event": [
				{
					"listen": "test",
					"script": {
						"type": "text/javascript",
						"exec": [
							"var body = JSON.parse(responseBody);",
							"pm.environment.set(\"todoId\", body._id);"
						]
					}
				}
			],
			"request": {
				"method": "POST",
				"header": [
					{
						"key": "Content-Type",
						"value": "application/json"
					},
					{
						"key": "x-auth",
						"value": "{{x-auth}}"
					}
				],
				"body": {
					"mode": "raw",
					"raw": "{ \n\t\"text\": \"Something to do from Postman\" \n\t\n}"
				},
				"url": {
					"raw": "{{url}}/todos",
					"host": [
						"{{url}}"
					],
					"path": [
						"todos"
					]
				}
			},
			"response": []
		},
		{
			"name": "6. GET /todos/:id",
			"request": {
				"method": "GET",
				"header": [
					{
						"key": "Content-Type",
						"value": "application/json"
					},
					{
						"key": "x-auth",
						"value": "{{x-auth}}"
					}
				],
				"url": {
					"raw": "{{url}}/todos/{{todoId}}",
					"host": [
						"{{url}}"
					],
					"path": [
						"todos",
						"{{todoId}}"
					]
				}
			},
			"response": []
		},
		{
			"name": "7. PATCH /todos/:id",
			"request": {
				"method": "PATCH",
				"header": [
					{
						"key": "Content-Type",
						"value": "application/json"
					},
					{
						"key": "x-auth",
						"value": "{{x-auth}}"
					}
				],
				"body": {
					"mode": "raw",
					"raw": "{\n\t\"completed\": true\n}"
				},
				"url": {
					"raw": "{{url}}/todos/{{todoId}}",
					"host": [
						"{{url}}"
					],
					"path": [
						"todos",
						"{{todoId}}"
					]
				}
			},
			"response": []
		},
		{
			"name": "8. DELETE /todos/:id",
			"request": {
				"method": "DELETE",
				"header": [
					{
						"key": "Content-Type",
						"value": "application/json"
					},
					{
						"key": "x-auth",
						"value": "{{x-auth}}"
					}
				],
				"body": {
					"mode": "raw",
					"raw": "{ \"text\": \"Buy running shoes\" }"
				},
				"url": {
					"raw": "{{url}}/todos/{{todoId}}",
					"host": [
						"{{url}}"
					],
					"path": [
						"todos",
						"{{todoId}}"
					]
				}
			},
			"response": []
		},
		{
			"name": "9. DELETE /users/me/token",
			"request": {
				"method": "DELETE",
				"header": [
					{
						"key": "x-auth",
						"value": "{{x-auth}}"
					}
				],
				"body": {
					"mode": "formdata",
					"formdata": []
				},
				"url": {
					"raw": "{{url}}/users/me/token",
					"host": [
						"{{url}}"
					],
					"path": [
						"users",
						"me",
						"token"
					]
				}
			},
			"response": []
		}
	]
}